{
  "id": "8dfebd5a-5b6a-a6c0-e283-59b5f7a1da53",
  "name": "BlueBird-Staging",
  "values": [
    {
      "key": "base_url",
      "value": "https://qa-mybb-gw.bluebirdgroup.com:7443/",
      "enabled": true
    },
    {
      "key": "provider",
      "value": "facebook",
      "enabled": true
    },
    {
      "key": "user_id",
      "value": "BB00545215",
      "enabled": true
    },
    {
      "key": "order_id",
      "value": "80097",
      "enabled": true
    },
    {
      "key": "token",
      "value": "407f41685b9f0b166530cc711d2d760c",
      "enabled": true
    },
    {
      "key": "endraicehouse",
      "value": "b19a65ee571221ebee930ea7a5bcc400",
      "enabled": true
    },
    {
      "key": "testlah",
      "value": "91a24008533274409ad0594b39785292",
      "enabled": true
    },
    {
      "key": "token_endra.focer2@gmail.com",
      "value": "d32a5b4d9dee354aeabb57e660fdc90c",
      "enabled": true
    },
    {
      "key": "token_endra.asrajab",
      "value": "ac98c3717489ec6d72f6f26b7ef3eba5",
      "enabled": true
    },
    {
      "key": "token_endraicehouse",
      "value": "d5fdc4f7ffd1542822ddbadeb19fc3bd",
      "enabled": true
    },
    {
      "key": "email",
      "value": "endra@icehouse.com",
      "enabled": true
    },
    {
      "key": "externalorderid",
      "value": "5949803",
      "enabled": true
    },
    {
      "key": "adamtest",
      "value": "cb64a5cb9d9497fafe3c0be9d4580ee7",
      "enabled": true
    },
    {
      "key": "balance",
      "value": "109000",
      "enabled": true
    },
    {
      "key": "final_fare",
      "value": "110000",
      "enabled": true
    },
    {
      "key": "orderid",
      "value": "93561",
      "enabled": true
    },
    {
      "key": "name",
      "value": "endrafta",
      "enabled": true
    },
    {
      "key": "phone",
      "value": "+6285299352535",
      "enabled": true
    },
    {
      "key": "token_adam",
      "value": "bacd368a66b9a624a0a4f321116d8249",
      "enabled": true
    }
  ],
  "_postman_variable_scope": "environment",
  "_postman_exported_at": "2018-10-01T07:34:42.609Z",
  "_postman_exported_using": "Postman/6.3.0"
}