{
	"info": {
		"_postman_id": "1445bff6-49ee-2af9-cd2b-26394dba875d",
		"name": "Bluebird backend",
		"schema": "https://schema.getpostman.com/json/collection/v2.0.0/collection.json"
	},
	"item": [
		{
			"name": "Add Trip Voucher",
			"item": [
				{
					"name": "Sign In V4",
					"event": [
						{
							"listen": "test",
							"script": {
								"id": "38abd666-49d7-439e-add2-d3bdd9f4e779",
								"type": "text/javascript",
								"exec": [
									"var response_body = JSON.parse(responseBody);",
									"",
									"postman.setEnvironmentVariable(\"token_endra.asrajab\",response_body.data.token);",
									"postman.setEnvironmentVariable(\"user_id\",response_body.data.user_id);",
									"postman.setEnvironmentVariable(\"email\",response_body.data.email);",
									"postman.setEnvironmentVariable(\"name\",response_body.data.name);",
									"postman.setEnvironmentVariable(\"phone\",response_body.data.phone);",
									"",
									"tests[\"Status code is 200\"] = responseCode.code === 200;",
									" ",
									"//tests[\"Response time is less than 200ms\"] = responseTime < 400;",
									" ",
									"var email = \"endra.asrajab@icehousecorp.com\";",
									"tests[\"Body cointains string: \" + email] = responseBody.has(email);",
									"",
									"// postman.setNextRequest(\"Add Trip Voucher\");"
								]
							}
						}
					],
					"request": {
						"method": "POST",
						"header": [
							{
								"key": "Content-Type",
								"value": "application/json"
							}
						],
						"body": {
							"mode": "raw",
							"raw": "{\n  \"email\": \"endra.asrajab@icehousecorp.com\",\n  \"password\": \"password123\",\n  \"uuid\": \"145c59c2-1d0d-4e39-a2ae-7f72dfc08066\",\n  \"operating_system\": \"android\",\n  \"manufacturer\": \"motorola\",\n  \"os_version\": \"5.1\",\n  \"device_token\": \"qwerty\"\n}"
						},
						"url": "{{base_url}}/api/v4/sessions"
					},
					"response": []
				},
				{
					"name": "Add Trip Voucher",
					"event": [
						{
							"listen": "test",
							"script": {
								"id": "95244ecf-a114-4d13-8d16-2b15157afd33",
								"type": "text/javascript",
								"exec": [
									"var data = JSON.parse(responseBody);",
									"",
									"tests[\"Status code is 200\"] = responseCode.code === 200;",
									"",
									"// if (responseCode.code == 200) {",
									"//     tests[\"Status code is 200\"] = responseCode.code === 200;",
									"// }"
								]
							}
						}
					],
					"request": {
						"method": "POST",
						"header": [
							{
								"key": "Token",
								"value": "{{token_endra.asrajab}}"
							},
							{
								"key": "Content-Type",
								"value": "application/json"
							}
						],
						"body": {
							"mode": "raw",
							"raw": "{\n  \"trip_voucher\": \"TRIP0028\"\n}"
						},
						"url": "{{base_url}}/api/v4/me/trip_voucher"
					},
					"response": []
				},
				{
					"name": "Get Payment Method V4 trip voucher",
					"event": [
						{
							"listen": "test",
							"script": {
								"id": "fc9ae53c-0132-4e40-b9ee-4a954e6c337d",
								"type": "text/javascript",
								"exec": [
									"var data = JSON.parse(responseBody);",
									"",
									"tests[\"Status code is 200\"] = responseCode.code === 200;"
								]
							}
						}
					],
					"request": {
						"method": "GET",
						"header": [
							{
								"key": "Token",
								"value": "{{token_endra.asrajab}}"
							},
							{
								"key": "Content-Type",
								"value": "application/json"
							},
							{
								"key": "Device-Time",
								"value": "2018-09-24T14:00:00+07:00"
							}
						],
						"body": {},
						"url": "{{base_url}}/api/v4/me/payment_methods"
					},
					"response": []
				}
			]
		},
		{
			"name": "eVoucher rules",
			"item": [
				{
					"name": "Sign In V4",
					"event": [
						{
							"listen": "test",
							"script": {
								"id": "b965ff8c-f5ba-4989-a990-43cfb620cd85",
								"type": "text/javascript",
								"exec": [
									"var data = JSON.parse(responseBody);",
									"",
									"postman.setEnvironmentVariable(\"endrafocer2\",data.data.token);",
									"postman.setEnvironmentVariable(\"user_id\",data.data.user_id);",
									"",
									"",
									"tests[\"Status code is 200\"] = responseCode.code === 200;",
									" ",
									"//tests[\"Response time is less than 200ms\"] = responseTime < 400;",
									" ",
									"var email = \"endra.focer2@gmail.com\"",
									"tests[\"Body cointains string: \" + email] = responseBody.has(email);"
								]
							}
						}
					],
					"request": {
						"method": "POST",
						"header": [
							{
								"key": "Content-Type",
								"value": "application/json"
							}
						],
						"body": {
							"mode": "raw",
							"raw": "{\n  \"email\": \"endra.focer2@gmail.com\",\n  \"password\": \"password\",\n  \"uuid\": \"145c59c2-1d0d-4e39-a2ae-7f72dfc08066\",\n  \"operating_system\": \"android\",\n  \"manufacturer\": \"motorola\",\n  \"os_version\": \"5.1\",\n  \"device_token\": \"qwerty\"\n}"
						},
						"url": "{{base_url}}/api/v4/sessions"
					},
					"response": []
				},
				{
					"name": "Get Payment Method V4 ecv rules",
					"event": [
						{
							"listen": "test",
							"script": {
								"type": "text/javascript",
								"exec": [
									"var data = JSON.parse(responseBody);",
									"",
									"tests[\"Status code is 200\"] = responseCode.code === 200;"
								]
							}
						}
					],
					"request": {
						"method": "GET",
						"header": [
							{
								"key": "Token",
								"value": "{{endrafocer2}}"
							},
							{
								"key": "Content-Type",
								"value": "application/json"
							},
							{
								"key": "Device-Time",
								"value": "2018-09-14T01:05:38Z"
							}
						],
						"body": {},
						"url": "{{base_url}}/api/v4/me/payment_methods"
					},
					"response": []
				},
				{
					"name": "Get Payment Method V4 detail ECV",
					"request": {
						"method": "GET",
						"header": [
							{
								"key": "Token",
								"value": "{{endrafocer2}}"
							},
							{
								"key": "Device-Time",
								"value": "2018-09-14T01:05:38Z"
							}
						],
						"body": {},
						"url": "{{base_url}}/api/v4/me/payment_methods/ecv/21676"
					},
					"response": []
				}
			]
		},
		{
			"name": "Create Order TCASH",
			"item": [
				{
					"name": "Sign In V4",
					"event": [
						{
							"listen": "test",
							"script": {
								"id": "f2dc29ce-dc58-471a-bdeb-e159de9aeaee",
								"type": "text/javascript",
								"exec": [
									"var response_body = JSON.parse(responseBody);",
									"",
									"postman.setEnvironmentVariable(\"token_adam\",response_body.data.token);",
									"postman.setEnvironmentVariable(\"user_id\",response_body.data.user_id);",
									"postman.setEnvironmentVariable(\"email\",response_body.data.email);",
									"postman.setEnvironmentVariable(\"name\",response_body.data.name);",
									"postman.setEnvironmentVariable(\"phone\",response_body.data.phone);",
									"",
									"tests[\"Status code is 200\"] = responseCode.code === 200;",
									" ",
									"//tests[\"Response time is less than 200ms\"] = responseTime < 400;",
									" ",
									"var email = \"dam@icehousecorp.com\"",
									"tests[\"Body cointains string: \" + email] = responseBody.has(email);"
								]
							}
						}
					],
					"request": {
						"method": "POST",
						"header": [
							{
								"key": "Content-Type",
								"value": "application/json"
							}
						],
						"body": {
							"mode": "raw",
							"raw": "{\n  \"email\": \"adam@icehousecorp.com\",\n  \"password\": \"password01\",\n  \"uuid\": \"145c59c2-1d0d-4e39-a2ae-7f72dfc08066\",\n  \"operating_system\": \"android\",\n  \"manufacturer\": \"motorola\",\n  \"os_version\": \"5.1\",\n  \"device_token\": \"qwerty\"\n}"
						},
						"url": "{{base_url}}/api/v4/sessions"
					},
					"response": []
				},
				{
					"name": "Get Tcash Balance",
					"event": [
						{
							"listen": "test",
							"script": {
								"id": "e10e2047-4e1a-4b5b-8eff-3edb78587cab",
								"type": "text/javascript",
								"exec": [
									"var response_body = JSON.parse(responseBody);",
									"postman.setEnvironmentVariable(\"balance\",response_body.data.balance);",
									"postman.setEnvironmentVariable(\"final_fare\",response_body.data.balance-1000);",
									"",
									"// console.log(\"final_fare: \", final_fare);",
									"",
									"tests[\"Status code is 200\"] = responseCode.code === 200;"
								]
							}
						}
					],
					"request": {
						"method": "GET",
						"header": [
							{
								"key": "Token",
								"value": "{{token_adam}}"
							}
						],
						"body": {},
						"url": {
							"raw": "{{base_url}}/api/v4/me/wallets/tcash?nocache=true",
							"host": [
								"{{base_url}}"
							],
							"path": [
								"api",
								"v4",
								"me",
								"wallets",
								"tcash"
							],
							"query": [
								{
									"key": "nocache",
									"value": "true"
								}
							]
						}
					},
					"response": []
				},
				{
					"name": "Create Order V4 TCASH",
					"event": [
						{
							"listen": "test",
							"script": {
								"id": "311c6682-022d-4f8c-b158-affbc8cc43f0",
								"type": "text/javascript",
								"exec": [
									"var data = JSON.parse(responseBody);",
									"postman.setEnvironmentVariable(\"orderid\",data.data.order_id);",
									"",
									"tests[\"Status code is 201\"] = responseCode.code === 201;",
									"",
									"var email = \"endra@icehouse.com\";",
									"tests[\"Body cointains string: \" + email] = responseBody.has(email);",
									""
								]
							}
						}
					],
					"request": {
						"method": "POST",
						"header": [
							{
								"key": "Token",
								"value": "{{token_adam}}"
							},
							{
								"key": "Content-Type",
								"value": "application/json"
							}
						],
						"body": {
							"mode": "raw",
							"raw": "{\n  \"app_version\": \"4.4.3\",\n  \"car_type\": \"blue_bird_taxi\",\n  \"customer_email\": \"{{email}}\",\n  \"customer_name\": \"{{name}}\",\n  \"device_type\": \"android\",\n  \"distance\": 7335.0,\n  \"dropoff_address\": \"Bluebird Pool Kalibata - Rawajati Timur I No.1, RT.1/RW.2, Rawajati, Pancoran, Kota Jakarta Selatan, Daerah Khusus Ibukota Jakarta 12750, Indonesia\",\n  \"dropoff_latitude\": -6.2581681,\n  \"dropoff_longitude\": 106.8545621,\n  \"epayment_display_name\": \"TCASH\",\n  \"epayment_token\": \"6281240456472\",\n  \"is_fixed_fare\": false,\n  \"is_on_street_ride\": false,\n  \"note_to_driver\": \"\",\n  \"payment_method\": \"tcash\",\n  \"phone_number\": \"{{phone}}\",\n  \"pickup_address\": \"Kedaung Group, Senopati, RT.8/RW.3, Selong, Kby. Baru, Kota Jakarta Selatan, Daerah Khusus Ibukota Jakarta 12110, Indonesia\",\n  \"pickup_latitude\": -6.232743300000001,\n  \"pickup_longitude\": 106.8117077,\n  \"promotion_code\": \"\",\n  \"promotion_discount_amount\": 0.0,\n  \"promotion_discount_type\": 0,\n  \"service_type_id\": 98,\n  \"street_id\": 0,\n  \"suburb_id\": 0,\n  \"total_cars_needed\": 0,\n  \"total_passengers\": 4,\n  \"trip_purpose\": \"\",\n  \"user_id\": \"{{user_id}}\",\n  \"waited_car_time\": \"\"\n}"
						},
						"url": "{{base_url}}/api/v4/me/orders"
					},
					"response": []
				},
				{
					"name": "Get Current Order V4 State 0",
					"event": [
						{
							"listen": "prerequest",
							"script": {
								"id": "ace0f525-cd0f-47f3-87d4-f8de424c5e18",
								"type": "text/javascript",
								"exec": [
									"setTimeout(function(){}, 3000); "
								]
							}
						},
						{
							"listen": "test",
							"script": {
								"id": "0a1f1fc6-8e0a-481b-b5a0-5fb46b948bbc",
								"type": "text/javascript",
								"exec": [
									"var response_body = JSON.parse(responseBody);",
									"",
									"postman.setEnvironmentVariable(\"externalorderid\", response_body.data.external_order_id);",
									"",
									"tests[\"Status code is 200\"] = responseCode.code === 200;",
									"//console.log(externalorderid);",
									"",
									"//postman.setNextRequest(\"Update Order state 1\");",
									"tests[\"State is 0\"] = response_body.data.state === 0;",
									"// console.log(\"state :\", response_body.data.state);"
								]
							}
						}
					],
					"request": {
						"method": "GET",
						"header": [
							{
								"key": "Token",
								"value": "{{token_adam}}"
							}
						],
						"body": {},
						"url": "{{base_url}}/api/v4/me/orders/current"
					},
					"response": []
				},
				{
					"name": "Update Order state 1",
					"event": [
						{
							"listen": "prerequest",
							"script": {
								"id": "f975ae66-a202-45e5-b758-6287b0e3c201",
								"type": "text/javascript",
								"exec": [
									"setTimeout(function(){}, 3000); "
								]
							}
						},
						{
							"listen": "test",
							"script": {
								"id": "0b745c1f-9bb2-4fc0-b658-57ffe3a33fcf",
								"type": "text/javascript",
								"exec": [
									"tests[\"Status code is 200\"] = responseCode.code === 200;"
								]
							}
						}
					],
					"request": {
						"method": "POST",
						"header": [
							{
								"key": "Content-Type",
								"value": "application/xml"
							}
						],
						"body": {
							"mode": "raw",
							"raw": "<x:Envelope xmlns:x=\"http://schemas.xmlsoap.org/soap/envelope/\" xmlns:sil=\"http://siliconstraits.com\">\n   <x:Header/>\n   <x:Body>\n       <sil:sendOrderInfo>\n           <sil:orderInfo>\n               &lt;set&gt;&lt;orderInfo&gt;&lt;orderId&gt;{{externalorderid}}&lt;/orderId&gt;&lt;itopId&gt;021&lt;/itopId&gt;&lt;state&gt;1&lt;/state&gt;&lt;carNo&gt;TRS999&lt;/carNo&gt;&lt;carLongitude&gt;106.8113669&lt;/carLongitude&gt;&lt;carLatitude&gt;-6.2324664&lt;/carLatitude&gt;&lt;carPhone&gt;01234567890&lt;/carPhone&gt;&lt;driverId&gt;C1234M&lt;/driverId&gt;&lt;driverName&gt;Jang Moko&lt;/driverName&gt;&lt;photoPath&gt;http://mobile.bluebirdgroup.com:6060/driver_photos/00139763.jpg&lt;/photoPath&gt;&lt;driverRate&gt;4.2&lt;/driverRate&gt;&lt;epayFlag&gt;4&lt;/epayFlag&gt;&lt;finalEpay&gt;&lt;/finalEpay&gt;&lt;passCodeFail&gt;&lt;/passCodeFail&gt;&lt;tokenNr&gt;tokenNumber&lt;/tokenNr&gt;&lt;/orderInfo&gt;&lt;/set&gt;\n           </sil:orderInfo>\n       </sil:sendOrderInfo>\n   </x:Body>\n</x:Envelope>"
						},
						"url": "{{base_url}}/soap/itop/service"
					},
					"response": []
				},
				{
					"name": "Get Current Order V4 State 1",
					"event": [
						{
							"listen": "prerequest",
							"script": {
								"id": "f9972bef-cd32-4ff9-b25f-88c90144f8ac",
								"type": "text/javascript",
								"exec": [
									"setTimeout(function(){}, 3000); "
								]
							}
						},
						{
							"listen": "test",
							"script": {
								"id": "e270accf-8b21-47df-b23a-9d4d17f5bdc9",
								"type": "text/javascript",
								"exec": [
									"var response_body = JSON.parse(responseBody);",
									"postman.setEnvironmentVariable(\"externalorderid\",response_body.data.external_order_id);",
									"",
									"tests[\"Status code is 200\"] = responseCode.code === 200;",
									"//console.log(externalorderid);",
									"",
									"//postman.setNextRequest(\"Update Order state 1\");",
									"",
									"tests[\"State is 1\"] = response_body.data.state === 1;",
									"",
									"console.log(\"state :\", response_body.data.state);"
								]
							}
						}
					],
					"request": {
						"method": "GET",
						"header": [
							{
								"key": "Token",
								"value": "{{token_adam}}"
							}
						],
						"body": {},
						"url": "{{base_url}}/api/v4/me/orders/current"
					},
					"response": []
				},
				{
					"name": "Get Tcash Balance First Charge",
					"event": [
						{
							"listen": "test",
							"script": {
								"id": "a3a507ba-1280-47b7-af87-09ebc46b5fc7",
								"type": "text/javascript",
								"exec": [
									"tests[\"Status code is 200\"] = responseCode.code === 200;",
									"var response_body = JSON.parse(responseBody);",
									"console.log(\"current_balance\", response_body.data.balance);"
								]
							}
						}
					],
					"request": {
						"method": "GET",
						"header": [
							{
								"key": "Token",
								"value": "{{token_adam}}"
							}
						],
						"body": {},
						"url": {
							"raw": "{{base_url}}/api/v4/me/wallets/tcash?nocache=true",
							"host": [
								"{{base_url}}"
							],
							"path": [
								"api",
								"v4",
								"me",
								"wallets",
								"tcash"
							],
							"query": [
								{
									"key": "nocache",
									"value": "true"
								}
							]
						}
					},
					"response": []
				},
				{
					"name": "Update Order state 4",
					"event": [
						{
							"listen": "prerequest",
							"script": {
								"type": "text/javascript",
								"exec": [
									"setTimeout(function(){}, 10000); "
								]
							}
						},
						{
							"listen": "test",
							"script": {
								"type": "text/javascript",
								"exec": [
									"tests[\"Status code is 200\"] = responseCode.code === 200;"
								]
							}
						}
					],
					"request": {
						"method": "POST",
						"header": [
							{
								"key": "Content-Type",
								"value": "application/xml"
							}
						],
						"body": {
							"mode": "raw",
							"raw": "<x:Envelope xmlns:x=\"http://schemas.xmlsoap.org/soap/envelope/\" xmlns:sil=\"http://siliconstraits.com\">\n   <x:Header/>\n   <x:Body>\n       <sil:sendOrderInfo>\n           <sil:orderInfo>\n               &lt;set&gt;&lt;orderInfo&gt;&lt;orderId&gt;{{externalorderid}}&lt;/orderId&gt;&lt;itopId&gt;021&lt;/itopId&gt;&lt;state&gt;4&lt;/state&gt;&lt;carNo&gt;TRS999&lt;/carNo&gt;&lt;carLongitude&gt;106.8113669&lt;/carLongitude&gt;&lt;carLatitude&gt;-6.2324664&lt;/carLatitude&gt;&lt;carPhone&gt;01234567890&lt;/carPhone&gt;&lt;driverId&gt;C1234M&lt;/driverId&gt;&lt;driverName&gt;Jang Moko&lt;/driverName&gt;&lt;photoPath&gt;http://mobile.bluebirdgroup.com:6060/driver_photos/00139763.jpg&lt;/photoPath&gt;&lt;driverRate&gt;4.2&lt;/driverRate&gt;&lt;epayFlag&gt;4&lt;/epayFlag&gt;&lt;finalEpay&gt;&lt;/finalEpay&gt;&lt;passCodeFail&gt;&lt;/passCodeFail&gt;&lt;tokenNr&gt;tokenNumber&lt;/tokenNr&gt;&lt;/orderInfo&gt;&lt;/set&gt;\n           </sil:orderInfo>\n       </sil:sendOrderInfo>\n   </x:Body>\n</x:Envelope>"
						},
						"url": "{{base_url}}/soap/itop/service"
					},
					"response": []
				},
				{
					"name": "Get Current Order V4 State 4",
					"event": [
						{
							"listen": "prerequest",
							"script": {
								"id": "f9972bef-cd32-4ff9-b25f-88c90144f8ac",
								"type": "text/javascript",
								"exec": [
									"setTimeout(function(){}, 3000); "
								]
							}
						},
						{
							"listen": "test",
							"script": {
								"id": "70705df4-0a55-48a7-be89-8d5c1401944b",
								"type": "text/javascript",
								"exec": [
									"var response_body = JSON.parse(responseBody);",
									"",
									"postman.setEnvironmentVariable(\"externalorderid\",response_body.data.external_order_id);",
									"",
									"tests[\"Status code is 200\"] = responseCode.code === 200;",
									"//console.log(externalorderid);",
									"",
									"//postman.setNextRequest(\"Update Order state 1\");",
									"tests[\"State is 4\"] = response_body.data.state === 4;",
									"",
									"console.log(\"state :\", response_body.data.state);"
								]
							}
						}
					],
					"request": {
						"method": "GET",
						"header": [
							{
								"key": "Token",
								"value": "{{token_adam}}"
							}
						],
						"body": {},
						"url": "{{base_url}}/api/v4/me/orders/current"
					},
					"response": []
				},
				{
					"name": "Update Order state 6 (passcode confirmed)",
					"event": [
						{
							"listen": "prerequest",
							"script": {
								"type": "text/javascript",
								"exec": [
									"setTimeout(function(){}, 10000); "
								]
							}
						},
						{
							"listen": "test",
							"script": {
								"type": "text/javascript",
								"exec": [
									"tests[\"Status code is 200\"] = responseCode.code === 200;"
								]
							}
						}
					],
					"request": {
						"method": "POST",
						"header": [
							{
								"key": "Content-Type",
								"value": "application/xml"
							}
						],
						"body": {
							"mode": "raw",
							"raw": "<x:Envelope xmlns:x=\"http://schemas.xmlsoap.org/soap/envelope/\" xmlns:sil=\"http://siliconstraits.com\">\n   <x:Header/>\n   <x:Body>\n       <sil:sendOrderInfo>\n           <sil:orderInfo>\n               &lt;set&gt;&lt;orderInfo&gt;&lt;orderId&gt;{{externalorderid}}&lt;/orderId&gt;&lt;itopId&gt;021&lt;/itopId&gt;&lt;state&gt;4&lt;/state&gt;&lt;carNo&gt;TRS999&lt;/carNo&gt;&lt;carLongitude&gt;106.8113669&lt;/carLongitude&gt;&lt;carLatitude&gt;-6.2324664&lt;/carLatitude&gt;&lt;carPhone&gt;01234567890&lt;/carPhone&gt;&lt;driverId&gt;C1234M&lt;/driverId&gt;&lt;driverName&gt;Jang Moko&lt;/driverName&gt;&lt;photoPath&gt;http://mobile.bluebirdgroup.com:6060/driver_photos/00139763.jpg&lt;/photoPath&gt;&lt;driverRate&gt;4.2&lt;/driverRate&gt;&lt;epayFlag&gt;4&lt;/epayFlag&gt;&lt;finalEpay&gt;4&lt;/finalEpay&gt;&lt;passCodeFail&gt;1&lt;/passCodeFail&gt;&lt;tokenNr&gt;tokenNumber&lt;/tokenNr&gt;&lt;/orderInfo&gt;&lt;/set&gt;\n           </sil:orderInfo>\n       </sil:sendOrderInfo>\n   </x:Body>\n</x:Envelope>"
						},
						"url": "{{base_url}}/soap/itop/service"
					},
					"response": []
				},
				{
					"name": "Get Current Order V4 State 6",
					"event": [
						{
							"listen": "prerequest",
							"script": {
								"id": "f9972bef-cd32-4ff9-b25f-88c90144f8ac",
								"type": "text/javascript",
								"exec": [
									"setTimeout(function(){}, 3000); "
								]
							}
						},
						{
							"listen": "test",
							"script": {
								"id": "fe734dee-4047-4853-910f-b0261993a047",
								"type": "text/javascript",
								"exec": [
									"var response_body = JSON.parse(responseBody);",
									"",
									"postman.setEnvironmentVariable(\"externalorderid\",response_body.data.external_order_id);",
									"",
									"tests[\"Status code is 200\"] = responseCode.code === 200;",
									"//console.log(externalorderid);",
									"",
									"//postman.setNextRequest(\"Update Order state 1\");",
									"tests[\"State is 6\"] = response_body.data.state === 6;",
									"console.log(\"state :\", response_body.data.state);"
								]
							}
						}
					],
					"request": {
						"method": "GET",
						"header": [
							{
								"key": "Token",
								"value": "{{token_adam}}"
							}
						],
						"body": {},
						"url": "{{base_url}}/api/v4/me/orders/current"
					},
					"response": []
				},
				{
					"name": "Finish order state 7 (ended true)",
					"event": [
						{
							"listen": "test",
							"script": {
								"id": "5c9d8f74-362f-4ec6-a499-7b2b8ac203f1",
								"type": "text/javascript",
								"exec": [
									"tests[\"Status code is 200\"] = responseCode.code === 200;"
								]
							}
						}
					],
					"request": {
						"method": "POST",
						"header": [
							{
								"key": "Content-Type",
								"value": "application/xml"
							}
						],
						"body": {
							"mode": "raw",
							"raw": "<x:Envelope xmlns:x=\"http://schemas.xmlsoap.org/soap/envelope/\" xmlns:sil=\"http://siliconstraits.com\">\n    <x:Header/>\n    <x:Body>\n        <sil:sendBusinessFinishInfo>\n            <sil:orderInfo>\n&lt;orderInfo&gt;&lt;orderId&gt;{{externalorderid}}&lt;/orderId&gt;&lt;itopId&gt;021&lt;/itopId&gt;&lt;finalEpay&gt;4&lt;/finalEpay&gt;&lt;state&gt;7&lt;/state&gt;&lt;carNo&gt;TRS999&lt;/carNo&gt;&lt;taxiCat&gt;Blue Bird&lt;/taxiCat&gt;&lt;carLongitude&gt;106.822283&lt;/carLongitude&gt;&lt;carLatitude&gt;-6.197067&lt;/carLatitude&gt;&lt;carPhone&gt;08111247840&lt;/carPhone&gt;&lt;driverId&gt;130241&lt;/driverId&gt;&lt;driverName&gt;Basir&lt;/driverName&gt;&lt;photoPath&gt;http://mobile.bluebirdgroup.com:6060/driver_photos/00130241.jpg&lt;/photoPath&gt;&lt;driverRate&gt;4.5&lt;/driverRate&gt;&lt;businessPrice&gt;{{final_fare}}&lt;/businessPrice&gt;&lt;businessExtra&gt;0&lt;/businessExtra&gt;&lt;businessFinalPrice&gt;0.0&lt;/businessFinalPrice&gt;&lt;businessKilo&gt;000000&lt;/businessKilo&gt;&lt;beginTime&gt;20180507212200&lt;/beginTime&gt;&lt;endTime&gt;20180518135600&lt;/endTime&gt;&lt;pointCount&gt;0&lt;/pointCount&gt;&lt;tripHistory&gt;&lt;/tripHistory&gt;&lt;/orderInfo&gt;\n            </sil:orderInfo>\n        </sil:sendBusinessFinishInfo>\n    </x:Body>gor\n</x:Envelope>"
						},
						"url": "{{base_url}}/soap/itop/service"
					},
					"response": []
				},
				{
					"name": "Update Order Rating V4",
					"event": [
						{
							"listen": "test",
							"script": {
								"id": "31297c1d-0de9-4ee9-9e29-dc6578991048",
								"type": "text/javascript",
								"exec": [
									"tests[\"Status code is 200\"] = responseCode.code === 200;"
								]
							}
						}
					],
					"request": {
						"method": "PATCH",
						"header": [
							{
								"key": "Content-Type",
								"value": "application/json"
							},
							{
								"key": "Token",
								"value": "{{token_adam}}"
							}
						],
						"body": {
							"mode": "raw",
							"raw": "{\n  \"passenger_comment\": \"The car is too old\",\n  \"passenger_email\": \"{{email}}\",\n  \"passenger_phone\": \"{{phone}}\",\n  \"rating\": \"4.0\",\n  \"tips\": 0\n}"
						},
						"url": "{{base_url}}/api/v4/me/orders/{{orderid}}"
					},
					"response": []
				}
			]
		},
		{
			"name": "Create Order TCASH Outstanding",
			"item": [
				{
					"name": "Sign In V4",
					"event": [
						{
							"listen": "test",
							"script": {
								"id": "6094e31d-97c8-4f3c-b43e-a64865bf0a8c",
								"type": "text/javascript",
								"exec": [
									"var response_body = JSON.parse(responseBody);",
									"",
									"postman.setEnvironmentVariable(\"token_endraicehouse\",response_body.data.token);",
									"postman.setEnvironmentVariable(\"user_id\",response_body.data.user_id);",
									"postman.setEnvironmentVariable(\"email\",response_body.data.email);",
									"postman.setEnvironmentVariable(\"name\",response_body.data.name);",
									"postman.setEnvironmentVariable(\"phone\",response_body.data.phone);",
									"",
									"tests[\"Status code is 200\"] = responseCode.code === 200;",
									" ",
									"//tests[\"Response time is less than 200ms\"] = responseTime < 400;",
									" ",
									"var email = \"endra@icehouse.com\"",
									"tests[\"Body cointains string: \" + email] = responseBody.has(email);"
								]
							}
						}
					],
					"request": {
						"method": "POST",
						"header": [
							{
								"key": "Content-Type",
								"value": "application/json"
							}
						],
						"body": {
							"mode": "raw",
							"raw": "{\n  \"email\": \"endra@icehouse.com\",\n  \"password\": \"password123\",\n  \"uuid\": \"145c59c2-1d0d-4e39-a2ae-7f72dfc08066\",\n  \"operating_system\": \"android\",\n  \"manufacturer\": \"motorola\",\n  \"os_version\": \"5.1\",\n  \"device_token\": \"qwerty\"\n}"
						},
						"url": "{{base_url}}/api/v4/sessions"
					},
					"response": []
				},
				{
					"name": "Get Tcash Balance",
					"event": [
						{
							"listen": "test",
							"script": {
								"id": "8641609d-198d-45a4-a668-995243b501aa",
								"type": "text/javascript",
								"exec": [
									"var response_body = JSON.parse(responseBody);",
									"postman.setEnvironmentVariable(\"balance\",response_body.data.balance);",
									"postman.setEnvironmentVariable(\"final_fare\",response_body.data.balance+1000);",
									"",
									"// console.log(\"final_fare: \", final_fare);",
									"",
									"tests[\"Status code is 200\"] = responseCode.code === 200;"
								]
							}
						}
					],
					"request": {
						"method": "GET",
						"header": [
							{
								"key": "Token",
								"value": "{{token_endraicehouse}}"
							}
						],
						"body": {},
						"url": {
							"raw": "{{base_url}}/api/v4/me/wallets/tcash?nocache=true",
							"host": [
								"{{base_url}}"
							],
							"path": [
								"api",
								"v4",
								"me",
								"wallets",
								"tcash"
							],
							"query": [
								{
									"key": "nocache",
									"value": "true"
								}
							]
						}
					},
					"response": []
				},
				{
					"name": "Create Order V4 TCASH",
					"event": [
						{
							"listen": "test",
							"script": {
								"id": "dbcf2502-5131-44fc-8063-6595bdbd25f9",
								"type": "text/javascript",
								"exec": [
									"var response_body = JSON.parse(responseBody);",
									"postman.setEnvironmentVariable(\"orderid\",response_body.data.order_id);",
									"",
									"tests[\"Status code is 201\"] = responseCode.code === 201;",
									"",
									"// var email = \"endra@icehouse.com\";",
									"// tests[\"Body cointains string: \" + email] = responseBody.has(email);",
									""
								]
							}
						}
					],
					"request": {
						"method": "POST",
						"header": [
							{
								"key": "Token",
								"value": "{{token_endraicehouse}}"
							},
							{
								"key": "Content-Type",
								"value": "application/json"
							}
						],
						"body": {
							"mode": "raw",
							"raw": "{\n  \"app_version\": \"4.4.3\",\n  \"car_type\": \"blue_bird_taxi\",\n  \"customer_email\": \"{{email}}\",\n  \"customer_name\": \"{{name}}\",\n  \"device_type\": \"android\",\n  \"distance\": 7335.0,\n  \"dropoff_address\": \"Bluebird Pool Kalibata - Rawajati Timur I No.1, RT.1/RW.2, Rawajati, Pancoran, Kota Jakarta Selatan, Daerah Khusus Ibukota Jakarta 12750, Indonesia\",\n  \"dropoff_latitude\": -6.2581681,\n  \"dropoff_longitude\": 106.8545621,\n  \"epayment_display_name\": \"TCASH\",\n  \"epayment_token\": \"6285299352535\",\n  \"is_fixed_fare\": false,\n  \"is_on_street_ride\": false,\n  \"note_to_driver\": \"\",\n  \"payment_method\": \"tcash\",\n  \"phone_number\": \"+6285299352535\",\n  \"pickup_address\": \"Kedaung Group, Senopati, RT.8/RW.3, Selong, Kby. Baru, Kota Jakarta Selatan, Daerah Khusus Ibukota Jakarta 12110, Indonesia\",\n  \"pickup_latitude\": -6.232743300000001,\n  \"pickup_longitude\": 106.8117077,\n  \"promotion_code\": \"\",\n  \"promotion_discount_amount\": 0.0,\n  \"promotion_discount_type\": 0,\n  \"service_type_id\": 98,\n  \"street_id\": 0,\n  \"suburb_id\": 0,\n  \"total_cars_needed\": 0,\n  \"total_passengers\": 4,\n  \"trip_purpose\": \"\",\n  \"user_id\": \"{{user_id}}\",\n  \"waited_car_time\": \"\"\n}"
						},
						"url": "{{base_url}}/api/v4/me/orders"
					},
					"response": []
				},
				{
					"name": "Get Current Order V4 State 0",
					"event": [
						{
							"listen": "prerequest",
							"script": {
								"id": "ace0f525-cd0f-47f3-87d4-f8de424c5e18",
								"type": "text/javascript",
								"exec": [
									"setTimeout(function(){}, 3000); "
								]
							}
						},
						{
							"listen": "test",
							"script": {
								"id": "0a1f1fc6-8e0a-481b-b5a0-5fb46b948bbc",
								"type": "text/javascript",
								"exec": [
									"var response_body = JSON.parse(responseBody);",
									"",
									"postman.setEnvironmentVariable(\"externalorderid\", response_body.data.external_order_id);",
									"",
									"tests[\"Status code is 200\"] = responseCode.code === 200;",
									"//console.log(externalorderid);",
									"",
									"//postman.setNextRequest(\"Update Order state 1\");",
									"tests[\"State is 0\"] = response_body.data.state === 0;",
									"// console.log(\"state :\", response_body.data.state);"
								]
							}
						}
					],
					"request": {
						"method": "GET",
						"header": [
							{
								"key": "Token",
								"value": "{{token_endraicehouse}}"
							}
						],
						"body": {},
						"url": "{{base_url}}/api/v4/me/orders/current"
					},
					"response": []
				},
				{
					"name": "Update Order state 1",
					"event": [
						{
							"listen": "prerequest",
							"script": {
								"id": "ea194cf7-3cf0-4086-ac7c-81ba9f7701d6",
								"type": "text/javascript",
								"exec": [
									"// setTimeout(function(){}, 3000); "
								]
							}
						},
						{
							"listen": "test",
							"script": {
								"id": "0b745c1f-9bb2-4fc0-b658-57ffe3a33fcf",
								"type": "text/javascript",
								"exec": [
									"tests[\"Status code is 200\"] = responseCode.code === 200;"
								]
							}
						}
					],
					"request": {
						"method": "POST",
						"header": [
							{
								"key": "Content-Type",
								"value": "application/xml"
							}
						],
						"body": {
							"mode": "raw",
							"raw": "<x:Envelope xmlns:x=\"http://schemas.xmlsoap.org/soap/envelope/\" xmlns:sil=\"http://siliconstraits.com\">\n   <x:Header/>\n   <x:Body>\n       <sil:sendOrderInfo>\n           <sil:orderInfo>\n               &lt;set&gt;&lt;orderInfo&gt;&lt;orderId&gt;{{externalorderid}}&lt;/orderId&gt;&lt;itopId&gt;021&lt;/itopId&gt;&lt;state&gt;1&lt;/state&gt;&lt;carNo&gt;TRS999&lt;/carNo&gt;&lt;carLongitude&gt;106.8113669&lt;/carLongitude&gt;&lt;carLatitude&gt;-6.2324664&lt;/carLatitude&gt;&lt;carPhone&gt;01234567890&lt;/carPhone&gt;&lt;driverId&gt;C1234M&lt;/driverId&gt;&lt;driverName&gt;Jang Moko&lt;/driverName&gt;&lt;photoPath&gt;http://mobile.bluebirdgroup.com:6060/driver_photos/00139763.jpg&lt;/photoPath&gt;&lt;driverRate&gt;4.2&lt;/driverRate&gt;&lt;epayFlag&gt;4&lt;/epayFlag&gt;&lt;finalEpay&gt;&lt;/finalEpay&gt;&lt;passCodeFail&gt;&lt;/passCodeFail&gt;&lt;tokenNr&gt;tokenNumber&lt;/tokenNr&gt;&lt;/orderInfo&gt;&lt;/set&gt;\n           </sil:orderInfo>\n       </sil:sendOrderInfo>\n   </x:Body>\n</x:Envelope>"
						},
						"url": "{{base_url}}/soap/itop/service"
					},
					"response": []
				},
				{
					"name": "Get Current Order V4 State 1",
					"event": [
						{
							"listen": "prerequest",
							"script": {
								"id": "f9972bef-cd32-4ff9-b25f-88c90144f8ac",
								"type": "text/javascript",
								"exec": [
									"setTimeout(function(){}, 3000); "
								]
							}
						},
						{
							"listen": "test",
							"script": {
								"id": "6c2afeeb-01b4-4671-b061-36abdbd42c63",
								"type": "text/javascript",
								"exec": [
									"var response_body = JSON.parse(responseBody);",
									"postman.setEnvironmentVariable(\"externalorderid\",response_body.data.external_order_id);",
									"",
									"tests[\"Status code is 200\"] = responseCode.code === 200;",
									"//console.log(externalorderid);",
									"",
									"//postman.setNextRequest(\"Update Order state 1\");",
									"",
									"tests[\"State is 1\"] = response_body.data.state === 1;",
									"//console.log(\"state :\", response_body.data.state);"
								]
							}
						}
					],
					"request": {
						"method": "GET",
						"header": [
							{
								"key": "Token",
								"value": "{{token_endraicehouse}}"
							}
						],
						"body": {},
						"url": "{{base_url}}/api/v4/me/orders/current"
					},
					"response": []
				},
				{
					"name": "Get Tcash Balance First Charge",
					"event": [
						{
							"listen": "test",
							"script": {
								"id": "a9fdfc0c-4afd-4e84-b378-14c919a1dc7a",
								"type": "text/javascript",
								"exec": [
									"tests[\"Status code is 200\"] = responseCode.code === 200;",
									"var response_body = JSON.parse(responseBody);",
									"console.log(\"current_balance\", response_body.data.balance);"
								]
							}
						},
						{
							"listen": "prerequest",
							"script": {
								"id": "8d8fef2f-8e41-4bfe-9430-2d65b147aea0",
								"type": "text/javascript",
								"exec": [
									"setTimeout(function(){}, 3000); "
								]
							}
						}
					],
					"request": {
						"method": "GET",
						"header": [
							{
								"key": "Token",
								"value": "{{token_endraicehouse}}"
							}
						],
						"body": {},
						"url": {
							"raw": "{{base_url}}/api/v4/me/wallets/tcash?nocache=true",
							"host": [
								"{{base_url}}"
							],
							"path": [
								"api",
								"v4",
								"me",
								"wallets",
								"tcash"
							],
							"query": [
								{
									"key": "nocache",
									"value": "true"
								}
							]
						}
					},
					"response": []
				},
				{
					"name": "Update Order state 4",
					"event": [
						{
							"listen": "prerequest",
							"script": {
								"id": "e26b429e-f094-403c-ac92-fec0e2a5e1c9",
								"type": "text/javascript",
								"exec": [
									"setTimeout(function(){}, 3000); "
								]
							}
						},
						{
							"listen": "test",
							"script": {
								"id": "1d01396a-c659-4bbc-9fea-a897486eb9e1",
								"type": "text/javascript",
								"exec": [
									"tests[\"Status code is 200\"] = responseCode.code === 200;"
								]
							}
						}
					],
					"request": {
						"method": "POST",
						"header": [
							{
								"key": "Content-Type",
								"value": "application/xml"
							}
						],
						"body": {
							"mode": "raw",
							"raw": "<x:Envelope xmlns:x=\"http://schemas.xmlsoap.org/soap/envelope/\" xmlns:sil=\"http://siliconstraits.com\">\n   <x:Header/>\n   <x:Body>\n       <sil:sendOrderInfo>\n           <sil:orderInfo>\n               &lt;set&gt;&lt;orderInfo&gt;&lt;orderId&gt;{{externalorderid}}&lt;/orderId&gt;&lt;itopId&gt;021&lt;/itopId&gt;&lt;state&gt;4&lt;/state&gt;&lt;carNo&gt;TRS999&lt;/carNo&gt;&lt;carLongitude&gt;106.8113669&lt;/carLongitude&gt;&lt;carLatitude&gt;-6.2324664&lt;/carLatitude&gt;&lt;carPhone&gt;01234567890&lt;/carPhone&gt;&lt;driverId&gt;C1234M&lt;/driverId&gt;&lt;driverName&gt;Jang Moko&lt;/driverName&gt;&lt;photoPath&gt;http://mobile.bluebirdgroup.com:6060/driver_photos/00139763.jpg&lt;/photoPath&gt;&lt;driverRate&gt;4.2&lt;/driverRate&gt;&lt;epayFlag&gt;4&lt;/epayFlag&gt;&lt;finalEpay&gt;&lt;/finalEpay&gt;&lt;passCodeFail&gt;&lt;/passCodeFail&gt;&lt;tokenNr&gt;tokenNumber&lt;/tokenNr&gt;&lt;/orderInfo&gt;&lt;/set&gt;\n           </sil:orderInfo>\n       </sil:sendOrderInfo>\n   </x:Body>\n</x:Envelope>"
						},
						"url": "{{base_url}}/soap/itop/service"
					},
					"response": []
				},
				{
					"name": "Get Current Order V4 State 4",
					"event": [
						{
							"listen": "prerequest",
							"script": {
								"id": "f9972bef-cd32-4ff9-b25f-88c90144f8ac",
								"type": "text/javascript",
								"exec": [
									"setTimeout(function(){}, 3000); "
								]
							}
						},
						{
							"listen": "test",
							"script": {
								"id": "9cd6c27a-07d4-485d-95cd-809076c86de2",
								"type": "text/javascript",
								"exec": [
									"var response_body = JSON.parse(responseBody);",
									"",
									"postman.setEnvironmentVariable(\"externalorderid\",response_body.data.external_order_id);",
									"",
									"tests[\"Status code is 200\"] = responseCode.code === 200;",
									"//console.log(externalorderid);",
									"",
									"//postman.setNextRequest(\"Update Order state 1\");",
									"tests[\"State is 4\"] = response_body.data.state === 4;",
									"//console.log(\"state :\", response_body.data.state);"
								]
							}
						}
					],
					"request": {
						"method": "GET",
						"header": [
							{
								"key": "Token",
								"value": "{{token_endraicehouse}}"
							}
						],
						"body": {},
						"url": "{{base_url}}/api/v4/me/orders/current"
					},
					"response": []
				},
				{
					"name": "Update Order state 6 (passcode confirmed)",
					"event": [
						{
							"listen": "prerequest",
							"script": {
								"id": "97125489-c42c-4bfa-82eb-aba109ac6c7e",
								"type": "text/javascript",
								"exec": [
									"setTimeout(function(){}, 3000); "
								]
							}
						},
						{
							"listen": "test",
							"script": {
								"id": "3e170c65-d565-498e-87c8-f6bb86c62034",
								"type": "text/javascript",
								"exec": [
									"tests[\"Status code is 200\"] = responseCode.code === 200;"
								]
							}
						}
					],
					"request": {
						"method": "POST",
						"header": [
							{
								"key": "Content-Type",
								"value": "application/xml"
							}
						],
						"body": {
							"mode": "raw",
							"raw": "<x:Envelope xmlns:x=\"http://schemas.xmlsoap.org/soap/envelope/\" xmlns:sil=\"http://siliconstraits.com\">\n   <x:Header/>\n   <x:Body>\n       <sil:sendOrderInfo>\n           <sil:orderInfo>\n               &lt;set&gt;&lt;orderInfo&gt;&lt;orderId&gt;{{externalorderid}}&lt;/orderId&gt;&lt;itopId&gt;021&lt;/itopId&gt;&lt;state&gt;6&lt;/state&gt;&lt;carNo&gt;TRS999&lt;/carNo&gt;&lt;carLongitude&gt;106.8113669&lt;/carLongitude&gt;&lt;carLatitude&gt;-6.2324664&lt;/carLatitude&gt;&lt;carPhone&gt;01234567890&lt;/carPhone&gt;&lt;driverId&gt;C1234M&lt;/driverId&gt;&lt;driverName&gt;Jang Moko&lt;/driverName&gt;&lt;photoPath&gt;http://mobile.bluebirdgroup.com:6060/driver_photos/00139763.jpg&lt;/photoPath&gt;&lt;driverRate&gt;4.2&lt;/driverRate&gt;&lt;epayFlag&gt;4&lt;/epayFlag&gt;&lt;finalEpay&gt;4&lt;/finalEpay&gt;&lt;passCodeFail&gt;1&lt;/passCodeFail&gt;&lt;tokenNr&gt;tokenNumber&lt;/tokenNr&gt;&lt;/orderInfo&gt;&lt;/set&gt;\n           </sil:orderInfo>\n       </sil:sendOrderInfo>\n   </x:Body>\n</x:Envelope>"
						},
						"url": "{{base_url}}/soap/itop/service"
					},
					"response": []
				},
				{
					"name": "Get Current Order V4 State 6",
					"event": [
						{
							"listen": "prerequest",
							"script": {
								"id": "f9972bef-cd32-4ff9-b25f-88c90144f8ac",
								"type": "text/javascript",
								"exec": [
									"setTimeout(function(){}, 3000); "
								]
							}
						},
						{
							"listen": "test",
							"script": {
								"id": "715b0607-386a-42b4-98de-4b27b2fb08c1",
								"type": "text/javascript",
								"exec": [
									"var response_body = JSON.parse(responseBody);",
									"",
									"postman.setEnvironmentVariable(\"externalorderid\",response_body.data.external_order_id);",
									"",
									"tests[\"Status code is 200\"] = responseCode.code === 200;",
									"//console.log(externalorderid);",
									"",
									"//postman.setNextRequest(\"Update Order state 1\");",
									"tests[\"State is 6\"] = response_body.data.state === 6;",
									"//console.log(\"state :\", response_body.data.state);"
								]
							}
						}
					],
					"request": {
						"method": "GET",
						"header": [
							{
								"key": "Token",
								"value": "{{token_endraicehouse}}"
							}
						],
						"body": {},
						"url": "{{base_url}}/api/v4/me/orders/current"
					},
					"response": []
				},
				{
					"name": "Finish order state 7 (ended true)",
					"event": [
						{
							"listen": "test",
							"script": {
								"id": "5c9d8f74-362f-4ec6-a499-7b2b8ac203f1",
								"type": "text/javascript",
								"exec": [
									"tests[\"Status code is 200\"] = responseCode.code === 200;"
								]
							}
						},
						{
							"listen": "prerequest",
							"script": {
								"id": "9c384872-cd61-486a-a2b2-8c40dc527e43",
								"type": "text/javascript",
								"exec": [
									"// var saldo = pm.variables.get(\"balance\");",
									"// console.log(\"saldo: \", saldo);",
									"// var finalfare = pm.variables.set(saldo-1000);",
									"// console.log(\"finalfare: \", finalfare);"
								]
							}
						}
					],
					"request": {
						"method": "POST",
						"header": [
							{
								"key": "Content-Type",
								"value": "application/xml"
							}
						],
						"body": {
							"mode": "raw",
							"raw": "<x:Envelope xmlns:x=\"http://schemas.xmlsoap.org/soap/envelope/\" xmlns:sil=\"http://siliconstraits.com\">\n    <x:Header/>\n    <x:Body>\n        <sil:sendBusinessFinishInfo>\n            <sil:orderInfo>\n&lt;orderInfo&gt;&lt;orderId&gt;{{externalorderid}}&lt;/orderId&gt;&lt;itopId&gt;021&lt;/itopId&gt;&lt;finalEpay&gt;4&lt;/finalEpay&gt;&lt;state&gt;7&lt;/state&gt;&lt;carNo&gt;TRS999&lt;/carNo&gt;&lt;taxiCat&gt;Blue Bird&lt;/taxiCat&gt;&lt;carLongitude&gt;106.822283&lt;/carLongitude&gt;&lt;carLatitude&gt;-6.197067&lt;/carLatitude&gt;&lt;carPhone&gt;08111247840&lt;/carPhone&gt;&lt;driverId&gt;130241&lt;/driverId&gt;&lt;driverName&gt;Basir&lt;/driverName&gt;&lt;photoPath&gt;http://mobile.bluebirdgroup.com:6060/driver_photos/00130241.jpg&lt;/photoPath&gt;&lt;driverRate&gt;4.5&lt;/driverRate&gt;&lt;businessPrice&gt;{{final_fare}}&lt;/businessPrice&gt;&lt;businessExtra&gt;0&lt;/businessExtra&gt;&lt;businessFinalPrice&gt;0.0&lt;/businessFinalPrice&gt;&lt;businessKilo&gt;000000&lt;/businessKilo&gt;&lt;beginTime&gt;20180507212200&lt;/beginTime&gt;&lt;endTime&gt;20180518135600&lt;/endTime&gt;&lt;pointCount&gt;0&lt;/pointCount&gt;&lt;tripHistory&gt;&lt;/tripHistory&gt;&lt;/orderInfo&gt;\n            </sil:orderInfo>\n        </sil:sendBusinessFinishInfo>\n    </x:Body>gor\n</x:Envelope>"
						},
						"url": "{{base_url}}/soap/itop/service"
					},
					"response": []
				},
				{
					"name": "Update Order Rating V4",
					"event": [
						{
							"listen": "test",
							"script": {
								"id": "31297c1d-0de9-4ee9-9e29-dc6578991048",
								"type": "text/javascript",
								"exec": [
									"tests[\"Status code is 200\"] = responseCode.code === 200;"
								]
							}
						}
					],
					"request": {
						"method": "PATCH",
						"header": [
							{
								"key": "Content-Type",
								"value": "application/json"
							},
							{
								"key": "Token",
								"value": "{{token_endraicehouse}}"
							}
						],
						"body": {
							"mode": "raw",
							"raw": "{\n  \"passenger_comment\": \"The car is too old\",\n  \"passenger_email\": \"{{email}}\",\n  \"passenger_phone\": \"{{phone}}\",\n  \"rating\": \"4.0\",\n  \"tips\": 0\n}"
						},
						"url": "{{base_url}}/api/v4/me/orders/{{orderid}}"
					},
					"response": []
				}
			]
		},
		{
			"name": "Create Order Cash",
			"item": [
				{
					"name": "Sign In V4",
					"event": [
						{
							"listen": "test",
							"script": {
								"id": "f0093144-8192-4306-8d4e-91672e711b91",
								"type": "text/javascript",
								"exec": [
									"var data = JSON.parse(responseBody);",
									"",
									"postman.setEnvironmentVariable(\"adamtest\",data.data.token);",
									"postman.setEnvironmentVariable(\"user_id\",data.data.user_id);",
									"postman.setEnvironmentVariable(\"email\",data.data.email);",
									"postman.setEnvironmentVariable(\"name\",data.data.name);",
									"",
									"tests[\"Status code is 200\"] = responseCode.code === 200;",
									" ",
									"//tests[\"Response time is less than 200ms\"] = responseTime < 400;",
									"",
									"tests[\"Email adam@icehousecorp.com\"] = data.data.email === \"adam@icehousecorp.com\";"
								]
							}
						}
					],
					"request": {
						"method": "POST",
						"header": [
							{
								"key": "Content-Type",
								"value": "application/json"
							}
						],
						"body": {
							"mode": "raw",
							"raw": "{\n  \"email\": \"adam@icehousecorp.com\",\n  \"password\": \"password01\",\n  \"uuid\": \"145c59c2-1d0d-4e39-a2ae-7f72dfc08066\",\n  \"operating_system\": \"android\",\n  \"manufacturer\": \"motorola\",\n  \"os_version\": \"5.1\",\n  \"device_token\": \"qwerty\"\n}"
						},
						"url": "{{base_url}}/api/v4/sessions"
					},
					"response": []
				},
				{
					"name": "Create Order V4 Cash",
					"event": [
						{
							"listen": "test",
							"script": {
								"type": "text/javascript",
								"exec": [
									"var data = JSON.parse(responseBody);",
									"postman.setEnvironmentVariable(\"orderid\",data.data.order_id);",
									"",
									"tests[\"Status code is 201\"] = responseCode.code === 201;",
									"",
									"var email = \"adam@icehousecorp.com\";",
									"tests[\"Body cointains string: \" + email] = responseBody.has(email);",
									""
								]
							}
						}
					],
					"request": {
						"method": "POST",
						"header": [
							{
								"key": "Token",
								"value": "{{adamtest}}"
							},
							{
								"key": "Content-Type",
								"value": "application/json"
							}
						],
						"body": {
							"mode": "raw",
							"raw": "{\n    \"car_type\":\"blue_bird_taxi\",\n    \"customer_email\": \"{{email}}\",\n    \"customer_name\":\"{{name}}\",\n    \"device_type\":\"android\",\n    \"dropoff_latitude\":0.0,\n    \"dropoff_longitude\":0.0,\n    \"epayment_display_name\":\"Cash\",\n    \"epayment_token\": \"\",\n    \"is_on_street_ride\":false,\n    \"note_to_driver\":\"\",\n    \"payment_method\":\"cash\",\n    \"phone_number\":\"+628134566223\",\n    \"pickup_address\":\"Senopati No.75, Selong, Kby. Baru, Kota Jakarta Selatan, DKI Jakarta 12110, Indonesia\",\n    \"pickup_latitude\":-6.2327373,\n    \"pickup_longitude\":106.8118921,\n    \"promotion_code\":\"\",\n    \"promotion_discount_amount\":0.0,\n    \"promotion_discount_type\":0,\n    \"service_type_id\":98,\n    \"street_id\":0,\n    \"suburb_id\":0,\n    \"total_cars_needed\":0,\n    \"total_passengers\":4,\n    \"trip_purpose\":\"\"\n}"
						},
						"url": "{{base_url}}/api/v4/me/orders"
					},
					"response": []
				},
				{
					"name": "Get Current Order V4",
					"event": [
						{
							"listen": "prerequest",
							"script": {
								"id": "f9972bef-cd32-4ff9-b25f-88c90144f8ac",
								"type": "text/javascript",
								"exec": [
									"setTimeout(function(){}, 3000); "
								]
							}
						},
						{
							"listen": "test",
							"script": {
								"id": "5e2744bf-a3ac-44d3-ac79-662f6e1c795c",
								"type": "text/javascript",
								"exec": [
									"var data = JSON.parse(responseBody);",
									"",
									"postman.setEnvironmentVariable(\"externalorderid\",data.data.external_order_id);",
									"",
									"tests[\"Status code is 200\"] = responseCode.code === 200;",
									"//console.log(externalorderid);",
									"",
									"//postman.setNextRequest(\"Update Order state 1\");"
								]
							}
						}
					],
					"request": {
						"method": "GET",
						"header": [
							{
								"key": "Token",
								"value": "{{adamtest}}"
							}
						],
						"body": {},
						"url": "{{base_url}}/api/v4/me/orders/current"
					},
					"response": []
				},
				{
					"name": "Update Order state 1",
					"event": [
						{
							"listen": "prerequest",
							"script": {
								"id": "0127445d-281c-488b-b708-71b83779e6d5",
								"type": "text/javascript",
								"exec": [
									"setTimeout(function(){}, 3000); "
								]
							}
						},
						{
							"listen": "test",
							"script": {
								"id": "4f3fc76f-b4d8-44e8-80a4-f93cd23990a4",
								"type": "text/javascript",
								"exec": [
									"tests[\"Status code is 200\"] = responseCode.code === 200;"
								]
							}
						}
					],
					"request": {
						"method": "POST",
						"header": [
							{
								"key": "Content-Type",
								"value": "application/xml"
							}
						],
						"body": {
							"mode": "raw",
							"raw": "<x:Envelope xmlns:x=\"http://schemas.xmlsoap.org/soap/envelope/\" xmlns:sil=\"http://siliconstraits.com\">\n   <x:Header/>\n   <x:Body>\n       <sil:sendOrderInfo>\n           <sil:orderInfo>\n               &lt;set&gt;&lt;orderInfo&gt;&lt;orderId&gt;{{externalorderid}}&lt;/orderId&gt;&lt;itopId&gt;021&lt;/itopId&gt;&lt;state&gt;1&lt;/state&gt;&lt;carNo&gt;TRS999&lt;/carNo&gt;&lt;carLongitude&gt;106.8113669&lt;/carLongitude&gt;&lt;carLatitude&gt;-6.2324664&lt;/carLatitude&gt;&lt;carPhone&gt;01234567890&lt;/carPhone&gt;&lt;driverId&gt;C1234M&lt;/driverId&gt;&lt;driverName&gt;Jang Moko&lt;/driverName&gt;&lt;photoPath&gt;http://mobile.bluebirdgroup.com:6060/driver_photos/00139763.jpg&lt;/photoPath&gt;&lt;driverRate&gt;4.2&lt;/driverRate&gt;&lt;epayFlag&gt;0&lt;/epayFlag&gt;&lt;finalEpay&gt;0&lt;/finalEpay&gt;&lt;passCodeFail&gt;&lt;/passCodeFail&gt;&lt;tokenNr&gt;tokenNumber&lt;/tokenNr&gt;&lt;/orderInfo&gt;&lt;/set&gt;\n           </sil:orderInfo>\n       </sil:sendOrderInfo>\n   </x:Body>\n</x:Envelope>"
						},
						"url": "{{base_url}}/soap/itop/service"
					},
					"response": []
				},
				{
					"name": "Get Current Order V4 State 1",
					"event": [
						{
							"listen": "prerequest",
							"script": {
								"id": "f9972bef-cd32-4ff9-b25f-88c90144f8ac",
								"type": "text/javascript",
								"exec": [
									"setTimeout(function(){}, 3000); "
								]
							}
						},
						{
							"listen": "test",
							"script": {
								"id": "109e166a-eee2-4c9b-a517-74d18b573d62",
								"type": "text/javascript",
								"exec": [
									"var data = JSON.parse(responseBody);",
									"postman.setEnvironmentVariable(\"externalorderid\",data.data.external_order_id);",
									"",
									"tests[\"Status code is 200\"] = responseCode.code === 200;",
									"//console.log(externalorderid);",
									"",
									"//postman.setNextRequest(\"Update Order state 1\");",
									"",
									"tests[\"State is 1\"] = data.data.state === \"1\";"
								]
							}
						}
					],
					"request": {
						"method": "GET",
						"header": [
							{
								"key": "Token",
								"value": "{{adamtest}}"
							}
						],
						"body": {},
						"url": "{{base_url}}/api/v4/me/orders/current"
					},
					"response": []
				},
				{
					"name": "Update Order state 4",
					"event": [
						{
							"listen": "prerequest",
							"script": {
								"id": "e9768c95-ad65-457a-ae21-6aad70feee39",
								"type": "text/javascript",
								"exec": [
									"setTimeout(function(){}, 3000); "
								]
							}
						},
						{
							"listen": "test",
							"script": {
								"id": "f62003c9-0480-42db-8c22-aacd48bf14b4",
								"type": "text/javascript",
								"exec": [
									"tests[\"Status code is 200\"] = responseCode.code === 200;"
								]
							}
						}
					],
					"request": {
						"method": "POST",
						"header": [
							{
								"key": "Content-Type",
								"value": "application/xml"
							}
						],
						"body": {
							"mode": "raw",
							"raw": "<x:Envelope xmlns:x=\"http://schemas.xmlsoap.org/soap/envelope/\" xmlns:sil=\"http://siliconstraits.com\">\n   <x:Header/>\n   <x:Body>\n       <sil:sendOrderInfo>\n           <sil:orderInfo>\n               &lt;set&gt;&lt;orderInfo&gt;&lt;orderId&gt;{{externalorderid}}&lt;/orderId&gt;&lt;itopId&gt;021&lt;/itopId&gt;&lt;state&gt;4&lt;/state&gt;&lt;carNo&gt;TRS999&lt;/carNo&gt;&lt;carLongitude&gt;106.8113669&lt;/carLongitude&gt;&lt;carLatitude&gt;-6.2324664&lt;/carLatitude&gt;&lt;carPhone&gt;01234567890&lt;/carPhone&gt;&lt;driverId&gt;C1234M&lt;/driverId&gt;&lt;driverName&gt;Jang Moko&lt;/driverName&gt;&lt;photoPath&gt;http://mobile.bluebirdgroup.com:6060/driver_photos/00139763.jpg&lt;/photoPath&gt;&lt;driverRate&gt;4.2&lt;/driverRate&gt;&lt;epayFlag&gt;0&lt;/epayFlag&gt;&lt;finalEpay&gt;0&lt;/finalEpay&gt;&lt;passCodeFail&gt;&lt;/passCodeFail&gt;&lt;tokenNr&gt;tokenNumber&lt;/tokenNr&gt;&lt;/orderInfo&gt;&lt;/set&gt;\n           </sil:orderInfo>\n       </sil:sendOrderInfo>\n   </x:Body>\n</x:Envelope>"
						},
						"url": "{{base_url}}/soap/itop/service"
					},
					"response": []
				},
				{
					"name": "Get Current Order V4 State 4",
					"event": [
						{
							"listen": "prerequest",
							"script": {
								"id": "f9972bef-cd32-4ff9-b25f-88c90144f8ac",
								"type": "text/javascript",
								"exec": [
									"setTimeout(function(){}, 3000); "
								]
							}
						},
						{
							"listen": "test",
							"script": {
								"id": "d2327c9b-b434-43cc-9310-a5d1962dfd34",
								"type": "text/javascript",
								"exec": [
									"var data = JSON.parse(responseBody);",
									"",
									"postman.setEnvironmentVariable(\"externalorderid\",data.data.external_order_id);",
									"",
									"tests[\"Status code is 200\"] = responseCode.code === 200;",
									"//console.log(externalorderid);",
									"",
									"//postman.setNextRequest(\"Update Order state 1\");",
									"tests[\"State is 4\"] = data.data.state === \"4\";"
								]
							}
						}
					],
					"request": {
						"method": "GET",
						"header": [
							{
								"key": "Token",
								"value": "{{adamtest}}"
							}
						],
						"body": {},
						"url": "{{base_url}}/api/v4/me/orders/current"
					},
					"response": []
				},
				{
					"name": "Finish order state 8 (ended true)",
					"event": [
						{
							"listen": "prerequest",
							"script": {
								"id": "1df2aa41-6c14-4e0b-8c5b-1a7156678900",
								"type": "text/javascript",
								"exec": [
									"setTimeout(function(){}, 3000); "
								]
							}
						},
						{
							"listen": "test",
							"script": {
								"id": "89e0a79c-38e3-48a6-910e-fef3fd70e36f",
								"type": "text/javascript",
								"exec": [
									"tests[\"Status code is 200\"] = responseCode.code === 200;"
								]
							}
						}
					],
					"request": {
						"method": "POST",
						"header": [
							{
								"key": "Content-Type",
								"value": "application/xml"
							}
						],
						"body": {
							"mode": "raw",
							"raw": "<x:Envelope xmlns:x=\"http://schemas.xmlsoap.org/soap/envelope/\" xmlns:sil=\"http://siliconstraits.com\">\n    <x:Header/>\n    <x:Body>\n        <sil:sendBusinessFinishInfo>\n            <sil:orderInfo>\n&lt;orderInfo&gt;&lt;orderId&gt;{{externalorderid}}&lt;/orderId&gt;&lt;itopId&gt;021&lt;/itopId&gt;&lt;finalEpay&gt;0&lt;/finalEpay&gt;&lt;state&gt;8&lt;/state&gt;&lt;carNo&gt;TRS999&lt;/carNo&gt;&lt;taxiCat&gt;Blue Bird&lt;/taxiCat&gt;&lt;carLongitude&gt;106.822283&lt;/carLongitude&gt;&lt;carLatitude&gt;-6.197067&lt;/carLatitude&gt;&lt;carPhone&gt;08111247840&lt;/carPhone&gt;&lt;driverId&gt;130241&lt;/driverId&gt;&lt;driverName&gt;Basir&lt;/driverName&gt;&lt;photoPath&gt;http://mobile.bluebirdgroup.com:6060/driver_photos/00130241.jpg&lt;/photoPath&gt;&lt;driverRate&gt;4.5&lt;/driverRate&gt;&lt;businessPrice&gt;153000&lt;/businessPrice&gt;&lt;businessExtra&gt;0&lt;/businessExtra&gt;&lt;businessFinalPrice&gt;0.0&lt;/businessFinalPrice&gt;&lt;businessKilo&gt;000000&lt;/businessKilo&gt;&lt;beginTime&gt;20180507212200&lt;/beginTime&gt;&lt;endTime&gt;20180518135600&lt;/endTime&gt;&lt;pointCount&gt;0&lt;/pointCount&gt;&lt;tripHistory&gt;&lt;/tripHistory&gt;&lt;/orderInfo&gt;\n            </sil:orderInfo>\n        </sil:sendBusinessFinishInfo>\n    </x:Body>gor\n</x:Envelope>"
						},
						"url": "{{base_url}}/soap/itop/service"
					},
					"response": []
				},
				{
					"name": "Update Order Rating V4",
					"event": [
						{
							"listen": "test",
							"script": {
								"id": "31297c1d-0de9-4ee9-9e29-dc6578991048",
								"type": "text/javascript",
								"exec": [
									"tests[\"Status code is 200\"] = responseCode.code === 200;"
								]
							}
						}
					],
					"request": {
						"method": "PATCH",
						"header": [
							{
								"key": "Content-Type",
								"value": "application/json"
							},
							{
								"key": "Token",
								"value": "{{adamtest}}"
							}
						],
						"body": {
							"mode": "raw",
							"raw": "{\n  \"passenger_comment\": \"The car is too old\",\n  \"passenger_email\": \"adam@icehousecorp.com\",\n  \"passenger_phone\": \"+6281240456472\",\n  \"rating\": \"4.0\",\n  \"tips\": 0\n}"
						},
						"url": "{{base_url}}/api/v4/me/orders/{{orderid}}"
					},
					"response": []
				}
			],
			"event": [
				{
					"listen": "prerequest",
					"script": {
						"id": "ea5410de-c753-4ad6-a511-e86d55028b0c",
						"type": "text/javascript",
						"exec": [
							""
						]
					}
				},
				{
					"listen": "test",
					"script": {
						"id": "47446b4e-b57d-4683-be69-a2c914073630",
						"type": "text/javascript",
						"exec": [
							""
						]
					}
				}
			]
		},
		{
			"name": "Cancel Order",
			"item": [
				{
					"name": "Sign In V4",
					"event": [
						{
							"listen": "test",
							"script": {
								"type": "text/javascript",
								"exec": [
									"var data = JSON.parse(responseBody);",
									"",
									"postman.setEnvironmentVariable(\"adamtest\",data.data.token);",
									"postman.setEnvironmentVariable(\"user_id\",data.data.user_id);",
									"postman.setEnvironmentVariable(\"email\",data.data.email);",
									"",
									"",
									"tests[\"Status code is 200\"] = responseCode.code === 200;",
									" ",
									"//tests[\"Response time is less than 200ms\"] = responseTime < 400;",
									" ",
									"var email = \"adam@icehousecorp.com\";",
									"tests[\"Body cointains string: \" + email] = responseBody.has(email);"
								]
							}
						}
					],
					"request": {
						"method": "POST",
						"header": [
							{
								"key": "Content-Type",
								"value": "application/json"
							}
						],
						"body": {
							"mode": "raw",
							"raw": "{\n  \"email\": \"adam@icehousecorp.com\",\n  \"password\": \"password01\",\n  \"uuid\": \"145c59c2-1d0d-4e39-a2ae-7f72dfc08066\",\n  \"operating_system\": \"android\",\n  \"manufacturer\": \"motorola\",\n  \"os_version\": \"5.1\",\n  \"device_token\": \"qwerty\"\n}"
						},
						"url": "{{base_url}}/api/v4/sessions"
					},
					"response": []
				},
				{
					"name": "Create Order V4 Cash",
					"event": [
						{
							"listen": "test",
							"script": {
								"type": "text/javascript",
								"exec": [
									"var data = JSON.parse(responseBody);",
									"postman.setEnvironmentVariable(\"orderid\",data.data.order_id);",
									"",
									"tests[\"Status code is 201\"] = responseCode.code === 201;",
									"",
									"var email = \"adam@icehousecorp.com\";",
									"tests[\"Body cointains string: \" + email] = responseBody.has(email);",
									""
								]
							}
						}
					],
					"request": {
						"method": "POST",
						"header": [
							{
								"key": "Token",
								"value": "{{adamtest}}"
							},
							{
								"key": "Content-Type",
								"value": "application/json"
							}
						],
						"body": {
							"mode": "raw",
							"raw": "{\n    \"car_type\":\"blue_bird_taxi\",\n    \"customer_email\": \"{{email}}\",\n    \"customer_name\":\"endra\",\n    \"device_type\":\"android\",\n    \"dropoff_latitude\":0.0,\n    \"dropoff_longitude\":0.0,\n    \"epayment_display_name\":\"Cash\",\n    \"epayment_token\": \"5237f9af75c4b4283b33812557da407a\",\n    \"is_on_street_ride\":false,\n    \"note_to_driver\":\"\",\n    \"payment_method\":\"cash\",\n    \"phone_number\":\"+628134566223\",\n    \"pickup_address\":\"Senopati No.75, Selong, Kby. Baru, Kota Jakarta Selatan, DKI Jakarta 12110, Indonesia\",\n    \"pickup_latitude\":-6.2327373,\n    \"pickup_longitude\":106.8118921,\n    \"promotion_code\":\"\",\n    \"promotion_discount_amount\":0.0,\n    \"promotion_discount_type\":0,\n    \"service_type_id\":98,\n    \"street_id\":0,\n    \"suburb_id\":0,\n    \"total_cars_needed\":0,\n    \"total_passengers\":4,\n    \"trip_purpose\":\"\"\n}"
						},
						"url": "{{base_url}}/api/v4/me/orders"
					},
					"response": []
				},
				{
					"name": "Get Current Order V4",
					"event": [
						{
							"listen": "prerequest",
							"script": {
								"id": "f16ba440-752b-40e1-a420-2643048685ec",
								"type": "text/javascript",
								"exec": [
									"setTimeout(function(){}, 3000); "
								]
							}
						},
						{
							"listen": "test",
							"script": {
								"id": "f2b5564b-4a57-4629-84d7-21954dcb8f25",
								"type": "text/javascript",
								"exec": [
									"var data = JSON.parse(responseBody);",
									"",
									"postman.setEnvironmentVariable(\"externalorderid\",data.data.external_order_id);",
									"postman.setEnvironmentVariable(\"orderid\",data.data.order_id);",
									"",
									"tests[\"Status code is 200\"] = responseCode.code === 200;",
									"//console.log(externalorderid);",
									"",
									"//postman.setNextRequest(\"Update Order state 1\");"
								]
							}
						}
					],
					"request": {
						"method": "GET",
						"header": [
							{
								"key": "Token",
								"value": "{{adamtest}}"
							}
						],
						"body": {},
						"url": "{{base_url}}/api/v4/me/orders/current"
					},
					"response": []
				},
				{
					"name": "Cancel Order V4 copy",
					"event": [
						{
							"listen": "test",
							"script": {
								"type": "text/javascript",
								"exec": [
									"tests[\"Status code is 204\"] = responseCode.code === 204;"
								]
							}
						}
					],
					"request": {
						"method": "DELETE",
						"header": [
							{
								"key": "Content-Type",
								"value": "application/json"
							},
							{
								"key": "Token",
								"value": "{{adamtest}}"
							}
						],
						"body": {
							"mode": "raw",
							"raw": "{\n  \"comment\": \"Driver didn't come, i'm so sad\"\n}"
						},
						"url": "{{base_url}}/api/v4/me/orders/{{orderid}}"
					},
					"response": []
				}
			]
		},
		{
			"name": "asdf",
			"request": {
				"method": "GET",
				"header": [],
				"body": {},
				"url": ""
			},
			"response": []
		}
	]
}